Steven King:515.123.4567:8:15
Neena Kochhar:515.123.4568:8:7
Lex De Haan:515.123.4569:8:7
Alexander Hunold:590.423.4567:5:1
Bruce Ernst:590.423.4568:5:1
David Austin:590.423.4569:5:1
Valli Pataballa:590.423.4560:5:1
Diana Lorentz:590.423.5567:5:1
Nancy Greenberg:515.124.4569:9:10
Daniel Faviet:515.124.4169:9:9
John Chen:515.124.4269:9:9
Ismael Sciarra:515.124.4369:9:9
Jose Manuel Urman:515.124.4469:9:9
Luis Popp:515.124.4567:9:9
Den Raphaely:515.127.4561:3:5
Alexander Khoo:515.127.4562:3:11
Shelli Baida:515.127.4563:3:11
Sigal Tobias:515.127.4564:3:11
Guy Himuro:515.127.4565:3:11
Karen Colmenares:515.127.4566:3:11
Matthew Weiss:650.123.1234:5:4
Adam Fripp:650.123.2234:5:4
Payam Kaufling:650.123.3234:5:4
Shanta Vollman:650.123.4234:5:4
Kevin Mourgos:650.123.5234:5:4
Julia Nayer:650.124.1214:5:3
Irene Mikkilineni:650.124.1224:5:3
James Landry:650.124.1334:5:3
Steven Markle:650.124.1434:5:3
Laura Bissot:650.124.5234:5:3
Mozhe Atkinson:650.124.6234:5:3
James Marlow:650.124.7234:5:3
TJ Olson:650.124.8234:5:3
Jason Mallin:650.127.1934:5:3
Michael Rogers:650.127.1834:5:3
Ki Gee:650.127.1734:5:3
Hazel Philtanker:650.127.1634:5:3
Renske Ladwig:650.121.1234:5:3
Stephen Stiles:650.121.2034:5:3
John Seo:650.121.2019:5:3
Joshua Patel:650.121.1834:5:3
Trenna Rajs:650.121.8009:5:3
Curtis Davies:650.121.2994:5:3
Randall Matos:650.121.2874:5:3
Peter Vargas:650.121.2004:5:3
John Russell:011.44.1344.429268:7:12
Karen Partners:011.44.1344.467268:7:12
Alberto Errazuriz:011.44.1344.429278:7:12
Gerald Cambrault:011.44.1344.619268:7:12
Eleni Zlotkey:011.44.1344.429018:7:12
Peter Tucker:011.44.1344.129268:7:1
David Bernstein:011.44.1344.345268:7:1
Peter Hall:011.44.1344.478968:7:1
Christopher Olsen:011.44.1344.498718:7:1
Nanette Cambrault:011.44.1344.987668:7:1
Oliver Tuvault:011.44.1344.486508:7:1
Janette King:011.44.1345.429268:7:1
Patrick Sully:011.44.1345.929268:7:1
Allan McEwen:011.44.1345.829268:7:1
Lindsey Smith:011.44.1345.729268:7:1
Louise Doran:011.44.1345.629268:7:1
Sarath Sewall:011.44.1345.529268:7:1
Clara Vishney:011.44.1346.129268:7:1
Danielle Greene:011.44.1346.229268:7:1
Mattea Marvins:011.44.1346.329268:7:1
David Lee:011.44.1346.529268:7:1
Sundar Ande:011.44.1346.629268:7:1
Amit Banda:011.44.1346.729268:7:1
Lisa Ozer:011.44.1343.929268:7:1
Harrison Bloom:011.44.1343.829268:7:1
Tayler Fox:011.44.1343.729268:7:1
William Smith:011.44.1343.629268:7:1
Elizabeth Bates:011.44.1343.529268:7:1
Sundita Kumar:011.44.1343.329268:7:1
Ellen Abel:011.44.1644.429267:7:1
Alyssa Hutton:011.44.1644.429266:7:1
Jonathon Taylor:011.44.1644.429265:7:1
Jack Livingston:011.44.1644.429264:7:1
Kimberely Grant:011.44.1644.429263:7:1
Charles Johnson:011.44.1644.429262:7:1
Winston Taylor:650.507.9876:5:8
Jean Fleaur:650.507.9877:5:8
Martha Sullivan:650.507.9878:5:8
Girard Geoni:650.507.9879:5:8
Nandita Sarchand:650.509.1876:5:8
Alexis Bull:650.509.2876:5:8
Julia Dellinger:650.509.3876:5:8
Anthony Cabrio:650.509.4876:5:8
Kelly Chung:650.505.1876:5:8
Jennifer Dilly:650.505.2876:5:8
Timothy Gates:650.505.3876:5:8
Randall Perkins:650.505.4876:5:8
Sarah Bell:650.501.1876:5:8
Britney Everett:650.501.2876:5:8
Samuel McCain:650.501.3876:5:8
Vance Jones:650.501.4876:5:8
Alana Walsh:650.507.9811:5:8
Kevin Feeney:650.507.9822:5:8
Donald OConnell:650.507.9833:5:8
Douglas Grant:650.507.9844:5:8
Jennifer Whalen:515.123.4444:1:6
Michael Hartstein:515.123.5555:2:13
Pat Fay:603.123.6666:2:2
Susan Mavris:515.123.7777:4:4
Hermann Baer:515.123.8888:6:14
Shelley Higgins:515.123.8080:10:2
William Gietz:515.123.8181:10:3
David Austin:590.423.4569:5:1